%YAML 1.1
%TAG !u! tag:unity3d.com,2011:
--- !u!1001 &100100000
Prefab:
  m_ObjectHideFlags: 1
  serializedVersion: 2
  m_Modification:
    m_TransformParent: {fileID: 0}
    m_Modifications: []
    m_RemovedComponents: []
  m_SourcePrefab: {fileID: 0}
  m_RootGameObject: {fileID: 1275394629672884}
  m_IsPrefabAsset: 1
--- !u!1 &1275394629672884
GameObject:
  m_ObjectHideFlags: 0
  m_CorrespondingSourceObject: {fileID: 0}
  m_PrefabInternal: {fileID: 100100000}
  serializedVersion: 6
  m_Component:
  - component: {fileID: 4258153160795246}
  - component: {fileID: 114934153290353442}
  m_Layer: 0
  m_Name: MonsterFactory
  m_TagString: Untagged
  m_Icon: {fileID: 0}
  m_NavMeshLayer: 0
  m_StaticEditorFlags: 0
  m_IsActive: 1
--- !u!4 &4258153160795246
Transform:
  m_ObjectHideFlags: 1
  m_CorrespondingSourceObject: {fileID: 0}
  m_PrefabInternal: {fileID: 100100000}
  m_GameObject: {fileID: 1275394629672884}
  m_LocalRotation: {x: 0, y: 0, z: 0, w: 1}
  m_LocalPosition: {x: 0, y: 0, z: 0}
  m_LocalScale: {x: 1, y: 1, z: 1}
  m_Children: []
  m_Father: {fileID: 0}
  m_RootOrder: 0
  m_LocalEulerAnglesHint: {x: 0, y: 0, z: 0}
--- !u!114 &114934153290353442
MonoBehaviour:
  m_ObjectHideFlags: 1
  m_CorrespondingSourceObject: {fileID: 0}
  m_PrefabInternal: {fileID: 100100000}
  m_GameObject: {fileID: 1275394629672884}
  m_Enabled: 1
  m_EditorHideFlags: 0
  m_Script: {fileID: 11500000, guid: 5e8f371323ccf544c8aa04493aaf6c95, type: 3}
  m_Name: 
  m_EditorClassIdentifier: 
  monsterDatas:
  - {fileID: 11400000, guid: e9cc4cd7a32d49c478508631396e6345, type: 2}
  - {fileID: 11400000, guid: fd14acf9c4595194a91c3766721d1dce, type: 2}
  - {fileID: 11400000, guid: fabb96edc049e3d4f8b1b40034a7fcc4, type: 2}
  - {fileID: 11400000, guid: 66fc93b1f72292d40af32864f3b58fea, type: 2}
  monsterPrefab: {fileID: 1142277665996188, guid: 6d9f7d761fbd3f34f9fe55b7ba2900ca,
    type: 2}
