%YAML 1.1
%TAG !u! tag:unity3d.com,2011:
--- !u!114 &11400000
MonoBehaviour:
  m_ObjectHideFlags: 0
  m_CorrespondingSourceObject: {fileID: 0}
  m_PrefabInternal: {fileID: 0}
  m_GameObject: {fileID: 0}
  m_Enabled: 1
  m_EditorHideFlags: 0
  m_Script: {fileID: 11500000, guid: 11d5f4db231df2e41a581f50f9bde079, type: 3}
  m_Name: Reflect
  m_EditorClassIdentifier: 
  element: {fileID: 11400000, guid: 99d6a4778fe13d64fa3440f9bd1ebd0a, type: 2}
  power: 0
  accuracy: 100
