%YAML 1.1
%TAG !u! tag:unity3d.com,2011:
--- !u!114 &11400000
MonoBehaviour:
  m_ObjectHideFlags: 0
  m_CorrespondingSourceObject: {fileID: 0}
  m_PrefabInternal: {fileID: 0}
  m_GameObject: {fileID: 0}
  m_Enabled: 1
  m_EditorHideFlags: 0
  m_Script: {fileID: 11500000, guid: 24e1cc0a9e327ec4fa255f0302f44393, type: 3}
  m_Name: Water
  m_EditorClassIdentifier: 
  Weaknesses:
  - {fileID: 11400000, guid: 52e4a80b32f2db240bc3a3b17353baa9, type: 2}
  Resistances:
  - {fileID: 11400000, guid: 617b21e775964204ca86b9941f08ebda, type: 2}
